%YAML 1.1
%TAG !u! tag:unity3d.com,2011:
--- !u!78 &1
TagManager:
  serializedVersion: 2
  tags:
  - Treasure
  - Ground
  - Pickup
  - Enemy
  - DamageArea
  - CanBreak
  - Robot
  - Analysis
  - Gimmick
  - HealArea
  - WaterFlow
  layers:
  - Default
  - TransparentFX
  - Ignore Raycast
  - Post Processing
  - Water
  - UI
  - Spotlight
  - Player
  - Diver
  - Robot
  - Ghost
  - Electricity
  - Key
  - Door
  - 
  - 
  - 
  - 
  - 
  - 
  - 
  - 
  - 
  - 
  - 
  - 
  - 
  - 
  - 
  - 
  - 
  - 
  m_SortingLayers:
  - name: Default
    uniqueID: 0
    locked: 0
  - name: RobotUI
    uniqueID: 4209333063
    locked: 0
  - name: PausePanel
    uniqueID: 1899400085
    locked: 0
  - name: ClearPanel
    uniqueID: 2077582697
    locked: 0
